[
 {
  "docstatus": 0,
  "doctype": "Workflow State",
  "icon": "question-sign",
  "modified": "2019-02-08 23:45:58.271591",
  "name": "Pending",
  "parent": null,
  "parentfield": null,
  "parenttype": null,
  "style": "",
  "workflow_state_name": "Pending"
 },
 {
  "docstatus": 0,
  "doctype": "Workflow State",
  "icon": "ok-sign",
  "modified": "2019-02-08 23:45:58.278709",
  "name": "Approved",
  "parent": null,
  "parentfield": null,
  "parenttype": null,
  "style": "Success",
  "workflow_state_name": "Approved"
 },
 {
  "docstatus": 0,
  "doctype": "Workflow State",
  "icon": "remove",
  "modified": "2019-02-08 23:45:58.285113",
  "name": "Rejected",
  "parent": null,
  "parentfield": null,
  "parenttype": null,
  "style": "Danger",
  "workflow_state_name": "Rejected"
 }
]